{
  "page": 1,
  "per_page": 10,
  "total": 30,
  "total_pages": 3,
  "data": [
    {
      "id": 2,
      "timestamp": 1560207582311,
      "status": "STOPPED",
      "operatingParams": {
        "rotorSpeed": 0,
        "slack": 0,
        "rootThreshold": 19.55
      },
      "asset": {
        "id": 1,
        "alias": "Axle Motor"
      },
      "parent": null
    },
    {
      "id": 6,
      "timestamp": 1552070631752,
      "status": "STOPPED",
      "operatingParams": {
        "rotorSpeed": 0,
        "slack": 0,
        "rootThreshold": 68.8
      },
      "asset": {
        "id": 7,
        "alias": "Counter Blades"
      }
    },
    {
      "id": 8,
      "timestamp": 1556931364850,
      "status": "STOPPED",
      "operatingParams": {
        "rotorSpeed": 0,
        "slack": 0,
        "rootThreshold": 11.87
      },
      "asset": {
        "id": 3,
        "alias": "Secondary Rotor Shaft"
      },
      "parent": {
        "id": 7,
        "alias": "Counter Blades"
      }
    },
    {
      "id": 9,
      "timestamp": 1552799232246,
      "status": "STOPPED",
      "operatingParams": {
        "rotorSpeed": 0,
        "slack": 0,
        "rootThreshold": 59.76
      },
      "asset": {
        "id": 6,
        "alias": "Penstock Guage"
      }
    },
    {
      "id": 10,
      "timestamp": 1554333987222,
      "status": "STOPPED",
      "operatingParams": {
        "rotorSpeed": 0,
        "slack": 0,
        "rootThreshold": 29.31
      },
      "asset": {
        "id": 0,
        "alias": "Primary Rotor"
      },
      "parent": {
        "id": 2,
        "alias": "Main Rotor Shaft"
      }
    },
    {
      "id": 12,
      "timestamp": 1563372668921,
      "status": "STOPPED",
      "operatingParams": {
        "rotorSpeed": 0,
        "slack": 0,
        "rootThreshold": 27.48
      },
      "asset": {
        "id": 3,
        "alias": "Secondary Rotor Shaft"
      },
      "parent": {
        "id": 7,
        "alias": "Counter Blades"
      }
    },
    {
      "id": 13,
      "timestamp": 1566004807118,
      "status": "STOPPED",
      "operatingParams": {
        "rotorSpeed": 0,
        "slack": 0,
        "rootThreshold": 43.84
      },
      "asset": {
        "id": 2,
        "alias": "Main Rotor Shaft"
      }
    },
    {
      "id": 16,
      "timestamp": 1556530607664,
      "status": "STOPPED",
      "operatingParams": {
        "rotorSpeed": 0,
        "slack": 0,
        "rootThreshold": 45.71
      },
      "asset": {
        "id": 7,
        "alias": "Counter Blades"
      }
    },
    {
      "id": 21,
      "timestamp": 1563677245362,
      "status": "STOPPED",
      "operatingParams": {
        "rotorSpeed": 0,
        "slack": 0,
        "rootThreshold": 12.1
      },
      "asset": {
        "id": 3,
        "alias": "Secondary Rotor Shaft"
      },
      "parent": {
        "id": 7,
        "alias": "Counter Blades"
      }
    },
    {
      "id": 26,
      "timestamp": 1547900798144,
      "status": "STOPPED",
      "operatingParams": {
        "rotorSpeed": 0,
        "slack": 0,
        "rootThreshold": 35.06
      },
      "asset": {
        "id": 2,
        "alias": "Main Rotor Shaft"
      }
    }
  ]
}